<?xml version="1.0" encoding="UTF-8" standalone="no"?><svg xmlns="http://www.w3.org/2000/svg" xmlns:xlink="http://www.w3.org/1999/xlink" contentScriptType="application/ecmascript" contentStyleType="text/css" height="82px" preserveAspectRatio="none" style="width:424px;height:82px;" version="1.1" viewBox="0 0 424 82" width="424px" zoomAndPan="magnify"><defs/><g><text fill="#000000" font-family="sans-serif" font-size="14" lengthAdjust="spacingAndGlyphs" textLength="46" x="15" y="24.9951">VALUE</text><text fill="#000000" font-family="sans-serif" font-size="14" lengthAdjust="spacingAndGlyphs" textLength="26" x="71" y="24.9951">123</text><line style="stroke:#A80036;stroke-width:1.0;" x1="66" x2="66" y1="10" y2="30.2969"/><line style="stroke:#A80036;stroke-width:1.0;" x1="10" x2="102" y1="30.2969" y2="30.2969"/><text fill="#000000" font-family="sans-serif" font-size="14" lengthAdjust="spacingAndGlyphs" textLength="38" x="19" y="45.292">NEXT</text><text fill="#000000" font-family="sans-serif" font-size="14" lengthAdjust="spacingAndGlyphs" textLength="0" x="83" y="45.292"/><line style="stroke:#A80036;stroke-width:1.0;" x1="66" x2="66" y1="30.2969" y2="50.5938"/><rect fill="none" height="40.5938" rx="5" ry="5" style="stroke:#A80036;stroke-width:1.5;" width="92" x="10" y="10"/><text fill="#000000" font-family="sans-serif" font-size="14" lengthAdjust="spacingAndGlyphs" textLength="46" x="144" y="34.9951">VALUE</text><text fill="#000000" font-family="sans-serif" font-size="14" lengthAdjust="spacingAndGlyphs" textLength="26" x="200" y="34.9951">456</text><line style="stroke:#A80036;stroke-width:1.0;" x1="195" x2="195" y1="20" y2="40.2969"/><line style="stroke:#A80036;stroke-width:1.0;" x1="139" x2="231" y1="40.2969" y2="40.2969"/><text fill="#000000" font-family="sans-serif" font-size="14" lengthAdjust="spacingAndGlyphs" textLength="38" x="148" y="55.292">NEXT</text><text fill="#000000" font-family="sans-serif" font-size="14" lengthAdjust="spacingAndGlyphs" textLength="0" x="212" y="55.292"/><line style="stroke:#A80036;stroke-width:1.0;" x1="195" x2="195" y1="40.2969" y2="60.5938"/><rect fill="none" height="40.5938" rx="5" ry="5" style="stroke:#A80036;stroke-width:1.5;" width="92" x="139" y="20"/><text fill="#000000" font-family="sans-serif" font-size="14" lengthAdjust="spacingAndGlyphs" textLength="46" x="273" y="44.9951">VALUE</text><text fill="#000000" font-family="sans-serif" font-size="14" lengthAdjust="spacingAndGlyphs" textLength="26" x="329" y="44.9951">789</text><line style="stroke:#A80036;stroke-width:1.0;" x1="324" x2="324" y1="30" y2="50.2969"/><line style="stroke:#A80036;stroke-width:1.0;" x1="268" x2="360" y1="50.2969" y2="50.2969"/><text fill="#000000" font-family="sans-serif" font-size="14" lengthAdjust="spacingAndGlyphs" textLength="38" x="277" y="65.292">NEXT</text><text fill="#000000" font-family="sans-serif" font-size="14" lengthAdjust="spacingAndGlyphs" textLength="0" x="341" y="65.292"/><line style="stroke:#A80036;stroke-width:1.0;" x1="324" x2="324" y1="50.2969" y2="70.5938"/><rect fill="none" height="40.5938" rx="5" ry="5" style="stroke:#A80036;stroke-width:1.5;" width="92" x="268" y="30"/><text fill="#000000" font-family="sans-serif" font-size="14" lengthAdjust="spacingAndGlyphs" textLength="5" x="402" y="65.4951">!</text><rect fill="none" height="20.2969" rx="5" ry="5" style="stroke:#A80036;stroke-width:1.5;" width="15" x="397" y="50.5"/><path d="M348,60.5 L361,60.5 C370.374,60.5 380.7885,60.5 389.4714,60.5 " fill="none" style="stroke:#A80036;stroke-width:1.0;stroke-dasharray:3.0,3.0;"/><path d="M389.4714,63.5815 L391.7825,60.5 L389.4714,57.4185 L397.1751,60.5 L389.4714,63.5815 " fill="#A80036" style="stroke:#A80036;stroke-width:1.0;"/><ellipse cx="348" cy="60.5" fill="#A80036" rx="3" ry="3" style="stroke:#A80036;stroke-width:1.0;"/><path d="M219,50.5 L232,50.5 C241.2667,50.5 251.1261,50.5 260.6683,50.5 " fill="none" style="stroke:#A80036;stroke-width:1.0;stroke-dasharray:3.0,3.0;"/><path d="M260.6683,53.527 L262.9386,50.5 L260.6683,47.473 L268.2357,50.5 L260.6683,53.527 " fill="#A80036" style="stroke:#A80036;stroke-width:1.0;"/><ellipse cx="219" cy="50.5" fill="#A80036" rx="3" ry="3" style="stroke:#A80036;stroke-width:1.0;"/><path d="M90,40.5 L103,40.5 C112.2667,40.5 122.1261,40.5 131.6683,40.5 " fill="none" style="stroke:#A80036;stroke-width:1.0;stroke-dasharray:3.0,3.0;"/><path d="M131.6683,43.527 L133.9386,40.5 L131.6683,37.473 L139.2357,40.5 L131.6683,43.527 " fill="#A80036" style="stroke:#A80036;stroke-width:1.0;"/><ellipse cx="90" cy="40.5" fill="#A80036" rx="3" ry="3" style="stroke:#A80036;stroke-width:1.0;"/><!--MD5=[b77a11c103a74c3785ae09c3b6bf08ce]
PlantUML version 1.2020.27beta1(Unknown compile time)
(GPL source distribution)
Java Runtime: Java(TM) SE Runtime Environment
JVM: Java HotSpot(TM) 64-Bit Server VM
Default Encoding: UTF-8
Language: en
Country: US
--></g></svg>